Id,Designator,Package,Quantity,Designation,Supplier and ref
8,C1,C_0402_1005Metric,1,1n,r
10,"C18,C19,C17,C15,C14,C13,C12,C11,C10,C9,C8,C6,C5,C4,C3,C2,C1",C_0402_1005Metric,17,100n,m
1,"C19,C15,C9,C12,C2,C17,C8,C21,C20,C18,C14,C10",C_0402_1005Metric,12,100nF,m
2,"C23,C22",C_0402_1005Metric,2,12pF,r
3,C3,C_0402_1005Metric,1,100pF,r
4,C4,C_0402_1005Metric,1,0.8pF,r
5,C5,C_0402_1005Metric,1,2.2pF,r
6,C6,C_0402_1005Metric,1,1nF,r
7,"C6,C4,C2,C9,C5,C3,C13,C11,C10,C7",C_0402_1005Metric,10,100n,m
7,C1,C_0603_1608Metric,1,1uF,m
19,C7,C_0603_1608Metric,1,2.2u,r
19,"C14,C12,C8",CP_Elec_5x5.8,3,10u,r
18,"C20,C16",CP_Elec_5x5.8,2,10u,r
8,"C7,C11,C16,C13",CP_Elec_5x5.8,4,10μF,r
9,Y1,Crystal_SMD_2016-4Pin_2.0x1.6mm,1,32 MHz,m
10,"L2,L1",L_0603_1608Metric,2,3.9nH,r
3,"D2,D1",LED_0402_1005Metric,2,LED,r
11,"D4,D3,D2,D1",LED_0402_1005Metric,4,LED,r
7,"D4,D3,D2,D1",LED_0402_1005Metric,4,LED,r
6,U1,LQFP-48_7x7mm_P0.5mm,1,STM32F103C8Tx,r
12,U2,LQFP-48_7x7mm_P0.5mm,1,STM32F103C8Tx,r
11,U4,LQFP-64_10x10mm_P0.5mm,1,STM32F412CGUx,m
3,",,,",MountingHole_2.2mm_M2,4,MountingHole_2.2mm_M2,
13,"REF**,REF**,REF**",MountingHole_2.2mm_M2,3,MountingHole_2.2mm_M2,
14,J7,PinHeader_1x02_P2.54mm_Vertical_SMD_Pin1Left,1,Conn_01x02_Female,m
6,"J1,J2",PinHeader_2x05_P1.27mm_Vertical_SMD,2,SWD,
17,J2,PinHeader_2x05_P1.27mm_Vertical_SMD,1,SWD,
15,J4,PinHeader_2x05_P1.27mm_Vertical_SMD,1,Conn_02x05_Female,r
16,J5,PinHeader_2x05_P1.27mm_Vertical_SMD,1,Conn_01x10_Female,r
18,J1,PinHeader_2x20_P2.54mm_Vertical,1,Raspberry_Pi_2_3,
17,U1,QFN-48-1EP_6x6mm_P0.4mm_EP4.6x4.6mm,1,nRF52832-QFxx,
9,R1,R_0402_1005Metric,1,4K7,r
18,"R14,R13",R_0402_1005Metric,2,1K7,r
15,R15,R_0402_1005Metric,1,4K7,r
9,"R18,R17,R16,R8,R7",R_0402_1005Metric,5,10K,r
2,"R2,R27,R25,R22",R_0402_1005Metric,4,10K,r
19,"R2,R8,R9,R5",R_0402_1005Metric,4,10K,r
5,"R20,R19",R_0402_1005Metric,2,5K1,r
1,"R23,R21",R_0402_1005Metric,2,75R,r
2,"R25,R24,R23,R22,R21,R14,R13,R12,R11,R10,R6,R5,R4,R3,R2,R1",R_0402_1005Metric,16,100R,r
1,"R27,R26,R9",R_0402_1005Metric,3,100K,r
15,R28,R_0402_1005Metric,1,0R,r
14,"R33,R32,R31,R30,R29,R26,R20,R19,R18,R17,R16,R15,R14,R13,R12,R11,R10,R9,R8,R7,R6,R5,R4,R3",R_0402_1005Metric,24,100R,r
13,"R35,R34,R24",R_0402_1005Metric,3,100K,r
20,"R39,R40,R41,R42,R35,R36,R37,R38,R34,R33,R32,R31,R30,R29,R28,R27,R26,R25,R24,R23,R22,R21,R20,R19",R_0402_1005Metric,24,100R,r
21,"R48,R47,R46,R45,R44,R43,R18,R15,R16,R17",R_0402_1005Metric,10,100K,r
22,"R7,R6,R12,R4",R_0402_1005Metric,4,75R,r
23,R10,R_0603_1608Metric,1,0R,r
24,R11,R_0603_1608Metric,1,4K7,r
25,"R3,R1",R_0603_1608Metric,2,10K,r
16,J3,RJ45_OST_PJ012-8P8CX_Vertical,1,RJ45-CAN,r
26,J6,RJ45_OST_PJ012-8P8CX_Vertical,1,RJ45_LED,r
5,U5,SO-8_3.9x4.9mm_P1.27mm,1,25LCxxx,r
27,U7,SO-8_3.9x4.9mm_P1.27mm,1,25LC020A-I/SN,r
12,U3,SOIC-8_3.9x4.9mm_P1.27mm,1,MCP2562-E-SN,r
28,U4,SOIC-8_3.9x4.9mm_P1.27mm,1,MCP2562-E-SN,r
29,U6,SOIC-8_3.9x4.9mm_P1.27mm,1,25PF020B80-4C-S,r
4,U2,SOIC-8_5.275x5.275mm_P1.27mm,1,SST25VF080B-50-4x-S2Ax,r
8,U7,SOIC-8_5.275x5.275mm_P1.27mm,1,AT45DB161D-SU,r
30,U3,SOT-223-3_TabPin2,1,LD1117S33TR_SOT223,r
11,U4,SOT-223-3_TabPin2,1,LD1117S33TR_SOT223,r
31,U5,SOT-223-3_TabPin2,1,NCP1117-5.0_SOT223,r
12,U6,SOT-223-3_TabPin2,1,LD1117S33TR_SOT223,r
10,U6,SOT-223-3_TabPin2,1,NCP1117-5.0_SOT223,r
17,"Q2,Q1",SOT-23,2,BSS138,r
16,"Q4,Q3",SOT-23,2,BSS84,r
13,U5,SOT-23-6,1,USBLC6-2SC6,r
32,AE1,Texas_SWRA117D_2.4GHz_Right,1,Antenna,
4,P1,USB_C_Receptacle_Amphenol_12401610E4-2A,1,USB_C_Plug,m
14,"U3,U2,U1",VSSOP-8_2.3x2mm_P0.5mm,3,74LVC2T45DC,m
33,"J1,J3,J2",WAGO 250-208,3,Conn_01x08_Female,r
