EESchema Schematic File Version 4
EELAYER 30 0
EELAYER END
$Descr A4 11693 8268
encoding utf-8
Sheet 1 1
Title ""
Date ""
Rev ""
Comp ""
Comment1 ""
Comment2 ""
Comment3 ""
Comment4 ""
$EndDescr
$Comp
L Connector:Conn_01x08_Female J2
U 1 1 5E1D8D9A
P 850 2300
F 0 "J2" H 742 1675 50  0000 C CNN
F 1 "Conn_01x08_Female" H 742 1766 50  0000 C CNN
F 2 "dim:WAGO_250-208" H 850 2300 50  0001 C CNN
F 3 "~" H 850 2300 50  0001 C CNN
	1    850  2300
	-1   0    0    1   
$EndComp
$Comp
L MCU_Nordic:nRF52832-QFxx U1
U 1 1 5E1F67DE
P 2500 5500
F 0 "U1" H 2500 3711 50  0000 C CNN
F 1 "nRF52832-QFxx" H 2500 3620 50  0000 C CNN
F 2 "kahiwi:QFN-NRF52832" H 2500 3400 50  0001 C CNN
F 3 "http://infocenter.nordicsemi.com/pdf/nRF52832_PS_v1.4.pdf" H 2000 5700 50  0001 C CNN
	1    2500 5500
	-1   0    0    1   
$EndComp
Text GLabel 5000 3800 0    50   Output ~ 0
MOSI
Text GLabel 5000 3700 0    50   Input ~ 0
MISO
Text GLabel 5000 3600 0    50   Output ~ 0
SCK
Text GLabel 6400 2300 2    50   Output ~ 0
PWM0
Text GLabel 6400 2400 2    50   Output ~ 0
PWM1
Text GLabel 6400 2500 2    50   Output ~ 0
PWM2
Text GLabel 6400 2600 2    50   Output ~ 0
PWM3
Text GLabel 6400 2900 2    50   Output ~ 0
PWM4
Text GLabel 6400 3000 2    50   Output ~ 0
PWM5
Text GLabel 5000 2300 0    50   Output ~ 0
PWM6
Text GLabel 5000 2400 0    50   Output ~ 0
PWM7
Wire Wire Line
	6600 3300 6600 3500
Wire Wire Line
	6600 3500 6350 3500
Wire Wire Line
	6600 3300 7400 3300
Wire Wire Line
	6350 3400 7400 3400
Wire Wire Line
	6350 2300 6400 2300
Wire Wire Line
	6400 2400 6350 2400
Wire Wire Line
	6350 2500 6400 2500
Wire Wire Line
	6400 2600 6350 2600
Wire Wire Line
	6400 2900 6350 2900
Wire Wire Line
	6350 3000 6400 3000
Wire Wire Line
	5000 2300 5050 2300
Wire Wire Line
	5000 2400 5050 2400
Text GLabel 5000 3100 0    50   Output ~ 0
PWM12
Text GLabel 5000 3200 0    50   Output ~ 0
PWM13
Wire Wire Line
	6400 3100 6350 3100
Wire Wire Line
	6350 3200 6400 3200
Wire Wire Line
	6350 3300 6500 3300
Wire Wire Line
	6500 3300 6500 3700
Wire Wire Line
	6500 3700 7400 3700
Text GLabel 5000 2600 0    50   Output ~ 0
SWO
Text GLabel 6500 3800 2    50   Input ~ 0
SWCLK
Text GLabel 6450 3600 2    50   BiDi ~ 0
SWDIO
Wire Wire Line
	6450 3600 6350 3600
Wire Wire Line
	6500 3800 6400 3800
Wire Wire Line
	6400 3800 6400 3700
Wire Wire Line
	6400 3700 6350 3700
Wire Wire Line
	5000 3700 5050 3700
Wire Wire Line
	5000 3600 5050 3600
Wire Wire Line
	5050 3800 5000 3800
Wire Wire Line
	5000 2600 5050 2600
Text GLabel 1550 5200 0    50   Output ~ 0
NRFSWO
Text GLabel 2450 1150 2    50   Input ~ 0
NRFSWO
Wire Wire Line
	1550 5200 1600 5200
$Comp
L Regulator_Linear:LD1117S33TR_SOT223 U3
U 1 1 5E2BA637
P 7500 950
F 0 "U3" H 7500 1192 50  0000 C CNN
F 1 "LD1117S33TR_SOT223" H 7500 1101 50  0000 C CNN
F 2 "Package_TO_SOT_SMD:SOT-223-3_TabPin2" H 7500 1150 50  0001 C CNN
F 3 "http://www.st.com/st-web-ui/static/active/en/resource/technical/document/datasheet/CD00000544.pdf" H 7600 700 50  0001 C CNN
	1    7500 950 
	1    0    0    -1  
$EndComp
$Comp
L power:GND #PWR0101
U 1 1 5E24901B
P 7500 1250
F 0 "#PWR0101" H 7500 1000 50  0001 C CNN
F 1 "GND" H 7505 1077 50  0000 C CNN
F 2 "" H 7500 1250 50  0001 C CNN
F 3 "" H 7500 1250 50  0001 C CNN
	1    7500 1250
	1    0    0    -1  
$EndComp
$Comp
L power:GND #PWR0102
U 1 1 5E24B444
P 7900 3900
F 0 "#PWR0102" H 7900 3650 50  0001 C CNN
F 1 "GND" H 7905 3727 50  0000 C CNN
F 2 "" H 7900 3900 50  0001 C CNN
F 3 "" H 7900 3900 50  0001 C CNN
	1    7900 3900
	1    0    0    -1  
$EndComp
$Comp
L power:GND #PWR0103
U 1 1 5E24EC58
P 5250 4000
F 0 "#PWR0103" H 5250 3750 50  0001 C CNN
F 1 "GND" H 5255 3827 50  0000 C CNN
F 2 "" H 5250 4000 50  0001 C CNN
F 3 "" H 5250 4000 50  0001 C CNN
	1    5250 4000
	1    0    0    -1  
$EndComp
$Comp
L Interface_CAN_LIN:MCP2562-E-SN U4
U 1 1 5E25921A
P 7900 3500
F 0 "U4" H 7900 4081 50  0000 C CNN
F 1 "MCP2562-E-SN" H 7900 3990 50  0000 C CNN
F 2 "Package_SO:SOIC-8_3.9x4.9mm_P1.27mm" H 7900 3000 50  0001 C CIN
F 3 "http://ww1.microchip.com/downloads/en/DeviceDoc/25167A.pdf" H 7900 3500 50  0001 C CNN
	1    7900 3500
	1    0    0    -1  
$EndComp
Wire Wire Line
	6950 750  6950 950 
$Comp
L power:+3V3 #PWR0107
U 1 1 5E2A351D
P 8000 750
F 0 "#PWR0107" H 8000 600 50  0001 C CNN
F 1 "+3V3" H 8015 923 50  0000 C CNN
F 2 "" H 8000 750 50  0001 C CNN
F 3 "" H 8000 750 50  0001 C CNN
	1    8000 750 
	1    0    0    -1  
$EndComp
Wire Wire Line
	8000 750  8000 950 
Wire Wire Line
	8000 950  7800 950 
$Comp
L Device:C C7
U 1 1 5E2A7C01
P 6950 1100
F 0 "C7" H 7068 1146 50  0000 L CNN
F 1 "10μF" H 7068 1055 50  0000 L CNN
F 2 "Capacitor_SMD:C_0805_2012Metric_Pad1.15x1.40mm_HandSolder" H 6988 950 50  0001 C CNN
F 3 "~" H 6950 1100 50  0001 C CNN
	1    6950 1100
	1    0    0    -1  
$EndComp
Connection ~ 6950 950 
$Comp
L Device:C C11
U 1 1 5E2A83FB
P 8000 1100
F 0 "C11" H 8118 1146 50  0000 L CNN
F 1 "10μF" H 8118 1055 50  0000 L CNN
F 2 "Capacitor_SMD:C_0805_2012Metric_Pad1.15x1.40mm_HandSolder" H 8038 950 50  0001 C CNN
F 3 "~" H 8000 1100 50  0001 C CNN
	1    8000 1100
	1    0    0    -1  
$EndComp
Connection ~ 8000 950 
Connection ~ 7500 1250
Wire Wire Line
	7500 1250 8000 1250
Wire Wire Line
	6950 950  7200 950 
Wire Wire Line
	5250 4000 5550 4000
Wire Wire Line
	5550 4000 5650 4000
Connection ~ 5550 4000
Wire Wire Line
	5650 4000 5750 4000
Connection ~ 5650 4000
Wire Wire Line
	5750 4000 5850 4000
Connection ~ 5750 4000
Wire Wire Line
	5550 1100 5550 1000
Wire Wire Line
	5550 1000 5650 1000
Wire Wire Line
	5650 1000 5750 1000
Connection ~ 5650 1000
Wire Wire Line
	5750 1000 5850 1000
Connection ~ 5750 1000
Wire Wire Line
	5850 1000 5950 1000
Connection ~ 5850 1000
$Comp
L power:GND #PWR0109
U 1 1 5E2FF07A
P 2050 3800
F 0 "#PWR0109" H 2050 3550 50  0001 C CNN
F 1 "GND" H 2055 3627 50  0000 C CNN
F 2 "" H 2050 3800 50  0001 C CNN
F 3 "" H 2050 3800 50  0001 C CNN
	1    2050 3800
	-1   0    0    1   
$EndComp
$Comp
L power:+3V3 #PWR0110
U 1 1 5E3009CA
P 2500 7200
F 0 "#PWR0110" H 2500 7050 50  0001 C CNN
F 1 "+3V3" H 2515 7373 50  0000 C CNN
F 2 "" H 2500 7200 50  0001 C CNN
F 3 "" H 2500 7200 50  0001 C CNN
	1    2500 7200
	-1   0    0    1   
$EndComp
Wire Wire Line
	2500 3800 2050 3800
$Comp
L power:+3V3 #PWR0111
U 1 1 5E28E9AA
P 7400 3600
F 0 "#PWR0111" H 7400 3450 50  0001 C CNN
F 1 "+3V3" H 7415 3773 50  0000 C CNN
F 2 "" H 7400 3600 50  0001 C CNN
F 3 "" H 7400 3600 50  0001 C CNN
	1    7400 3600
	0    -1   -1   0   
$EndComp
$Comp
L power:+5V #PWR0112
U 1 1 5E28F41C
P 8300 3100
F 0 "#PWR0112" H 8300 2950 50  0001 C CNN
F 1 "+5V" H 8315 3273 50  0000 C CNN
F 2 "" H 8300 3100 50  0001 C CNN
F 3 "" H 8300 3100 50  0001 C CNN
	1    8300 3100
	1    0    0    -1  
$EndComp
Wire Wire Line
	8300 3100 7900 3100
Text GLabel 1600 6100 0    50   Input ~ 0
SCK
Text GLabel 1600 6200 0    50   Output ~ 0
MISO
Text GLabel 3600 1150 2    50   Input ~ 0
SWO
Text GLabel 3600 1350 2    50   Output ~ 0
SWCLK
Text GLabel 3600 1550 2    50   BiDi ~ 0
SWDIO
$Comp
L MCU_ST_STM32F1:STM32F103C8Tx U2
U 1 1 5E211558
P 5750 2500
F 0 "U2" H 5700 911 50  0000 C CNN
F 1 "STM32F103C8Tx" H 5700 820 50  0000 C CNN
F 2 "Package_QFP:LQFP-48_7x7mm_P0.5mm" H 5150 1100 50  0001 R CNN
F 3 "http://www.st.com/st-web-ui/static/active/en/resource/technical/document/datasheet/CD00161566.pdf" H 5750 2500 50  0001 C CNN
	1    5750 2500
	1    0    0    -1  
$EndComp
Connection ~ 5550 1000
Wire Wire Line
	5550 1000 5450 1000
$Comp
L power:+3V3 #PWR0115
U 1 1 5E2EEAD5
P 5450 1000
F 0 "#PWR0115" H 5450 850 50  0001 C CNN
F 1 "+3V3" H 5465 1173 50  0000 C CNN
F 2 "" H 5450 1000 50  0001 C CNN
F 3 "" H 5450 1000 50  0001 C CNN
	1    5450 1000
	1    0    0    -1  
$EndComp
Text GLabel 3500 4700 2    50   BiDi ~ 0
NRFSWDIO
Text GLabel 3500 4800 2    50   Input ~ 0
NRFSWDCLK
Wire Wire Line
	3500 4700 3400 4700
Wire Wire Line
	3400 4800 3500 4800
$Comp
L Device:R R1
U 1 1 5E3CBEC5
P 4350 4900
F 0 "R1" H 4280 4854 50  0000 R CNN
F 1 "10K" H 4280 4945 50  0000 R CNN
F 2 "Resistor_SMD:R_0603_1608Metric_Pad0.98x0.95mm_HandSolder" V 4280 4900 50  0001 C CNN
F 3 "~" H 4350 4900 50  0001 C CNN
	1    4350 4900
	0    -1   -1   0   
$EndComp
$Comp
L power:GND #PWR0118
U 1 1 5E3DCB87
P 4500 4900
F 0 "#PWR0118" H 4500 4650 50  0001 C CNN
F 1 "GND" H 4505 4727 50  0000 C CNN
F 2 "" H 4500 4900 50  0001 C CNN
F 3 "" H 4500 4900 50  0001 C CNN
	1    4500 4900
	0    -1   -1   0   
$EndComp
Wire Wire Line
	4200 4900 3400 4900
Connection ~ 4200 4900
$Comp
L Device:R R2
U 1 1 5E3EAEA0
P 4900 1400
F 0 "R2" V 5107 1400 50  0000 C CNN
F 1 "10K" V 5016 1400 50  0000 C CNN
F 2 "Resistor_SMD:R_0603_1608Metric_Pad0.98x0.95mm_HandSolder" V 4830 1400 50  0001 C CNN
F 3 "~" H 4900 1400 50  0001 C CNN
	1    4900 1400
	0    -1   -1   0   
$EndComp
$Comp
L power:GND #PWR0119
U 1 1 5E3EC3DE
P 4750 1400
F 0 "#PWR0119" H 4750 1150 50  0001 C CNN
F 1 "GND" H 4755 1227 50  0000 C CNN
F 2 "" H 4750 1400 50  0001 C CNN
F 3 "" H 4750 1400 50  0001 C CNN
	1    4750 1400
	0    1    1    0   
$EndComp
$Comp
L Device:C C6
U 1 1 5E3F1A7D
P 5000 900
F 0 "C6" H 4885 854 50  0000 R CNN
F 1 "1nF" H 4885 945 50  0000 R CNN
F 2 "Capacitor_SMD:C_0603_1608Metric_Pad1.08x0.95mm_HandSolder" H 5038 750 50  0001 C CNN
F 3 "~" H 5000 900 50  0001 C CNN
	1    5000 900 
	-1   0    0    1   
$EndComp
$Comp
L power:GND #PWR0120
U 1 1 5E3F3D82
P 5000 750
F 0 "#PWR0120" H 5000 500 50  0001 C CNN
F 1 "GND" H 5005 577 50  0000 C CNN
F 2 "" H 5000 750 50  0001 C CNN
F 3 "" H 5000 750 50  0001 C CNN
	1    5000 750 
	-1   0    0    1   
$EndComp
Wire Wire Line
	5050 1200 5000 1200
Wire Wire Line
	5000 1200 5000 1050
Text GLabel 1550 7000 0    50   Output ~ 0
PWM18
Wire Wire Line
	1550 6700 1600 6700
Wire Wire Line
	1550 6800 1600 6800
Wire Wire Line
	1600 6900 1550 6900
$Comp
L Connector:Conn_01x08_Female J3
U 1 1 5E45004B
P 850 3300
F 0 "J3" H 742 2675 50  0000 C CNN
F 1 "Conn_01x08_Female" H 742 2766 50  0000 C CNN
F 2 "dim:WAGO_250-208" H 850 3300 50  0001 C CNN
F 3 "~" H 850 3300 50  0001 C CNN
	1    850  3300
	-1   0    0    1   
$EndComp
Text GLabel 3700 2550 2    50   Input ~ 0
PWM0
Text GLabel 1450 1450 2    50   Input ~ 0
PWM8
Text GLabel 1450 1550 2    50   Input ~ 0
PWM9
Text GLabel 1450 1350 2    50   Input ~ 0
PWM7
Text GLabel 1450 1250 2    50   Input ~ 0
PWM6
Text GLabel 1450 950  2    50   Input ~ 0
PWM3
Text GLabel 1450 850  2    50   Input ~ 0
PWM2
Text GLabel 3700 2650 2    50   Input ~ 0
PWM1
Text GLabel 1450 1050 2    50   Input ~ 0
PWM4
Text GLabel 1450 1150 2    50   Input ~ 0
PWM5
Text GLabel 1450 2300 2    50   Input ~ 0
PWM10
Text GLabel 1450 2400 2    50   Input ~ 0
PWM11
Text GLabel 1450 2500 2    50   Input ~ 0
PWM12
Text GLabel 1450 2600 2    50   Input ~ 0
PWM13
Text GLabel 1450 1900 2    50   Input ~ 0
PWM14
Text GLabel 1450 2000 2    50   Input ~ 0
PWM15
Text GLabel 1450 2100 2    50   Input ~ 0
PWM16
Text GLabel 1450 2200 2    50   Input ~ 0
PWM17
Text GLabel 1450 2900 2    50   Input ~ 0
PWM18
Text GLabel 1450 3000 2    50   Input ~ 0
PWM19
Text GLabel 1450 3100 2    50   Input ~ 0
PWM20
Text GLabel 1450 3200 2    50   Input ~ 0
PWM21
Text GLabel 1450 3300 2    50   Input ~ 0
PWM22
Wire Wire Line
	2700 7700 2700 7200
$Comp
L Device:C C1
U 1 1 5E49D103
P 2850 7700
F 0 "C1" V 2598 7700 50  0000 C CNN
F 1 "1uF" V 2689 7700 50  0000 C CNN
F 2 "Capacitor_SMD:C_0603_1608Metric_Pad1.08x0.95mm_HandSolder" H 2888 7550 50  0001 C CNN
F 3 "~" H 2850 7700 50  0001 C CNN
	1    2850 7700
	0    1    1    0   
$EndComp
$Comp
L power:GND #PWR0121
U 1 1 5E49DB90
P 3000 7700
F 0 "#PWR0121" H 3000 7450 50  0001 C CNN
F 1 "GND" H 3005 7527 50  0000 C CNN
F 2 "" H 3000 7700 50  0001 C CNN
F 3 "" H 3000 7700 50  0001 C CNN
	1    3000 7700
	0    -1   -1   0   
$EndComp
$Comp
L Device:C C2
U 1 1 5E49E7FE
P 3450 7200
F 0 "C2" V 3198 7200 50  0000 C CNN
F 1 "100nF" V 3289 7200 50  0000 C CNN
F 2 "Capacitor_SMD:C_0603_1608Metric_Pad1.08x0.95mm_HandSolder" H 3488 7050 50  0001 C CNN
F 3 "~" H 3450 7200 50  0001 C CNN
	1    3450 7200
	0    1    1    0   
$EndComp
$Comp
L Device:C C3
U 1 1 5E49ED5C
P 3450 7600
F 0 "C3" V 3198 7600 50  0000 C CNN
F 1 "100pF" V 3289 7600 50  0000 C CNN
F 2 "Capacitor_SMD:C_0603_1608Metric_Pad1.08x0.95mm_HandSolder" H 3488 7450 50  0001 C CNN
F 3 "~" H 3450 7600 50  0001 C CNN
	1    3450 7600
	0    1    1    0   
$EndComp
Wire Wire Line
	2800 7200 2800 7400
Wire Wire Line
	2800 7400 3300 7400
Wire Wire Line
	3300 7400 3300 7600
Wire Wire Line
	3000 7200 3300 7200
$Comp
L power:GND #PWR0122
U 1 1 5E4AC2BF
P 3600 7600
F 0 "#PWR0122" H 3600 7350 50  0001 C CNN
F 1 "GND" H 3605 7427 50  0000 C CNN
F 2 "" H 3600 7600 50  0001 C CNN
F 3 "" H 3600 7600 50  0001 C CNN
	1    3600 7600
	0    -1   -1   0   
$EndComp
$Comp
L power:GND #PWR0123
U 1 1 5E4AC527
P 3600 7200
F 0 "#PWR0123" H 3600 6950 50  0001 C CNN
F 1 "GND" H 3605 7027 50  0000 C CNN
F 2 "" H 3600 7200 50  0001 C CNN
F 3 "" H 3600 7200 50  0001 C CNN
	1    3600 7200
	0    -1   -1   0   
$EndComp
$Comp
L Device:L L1
U 1 1 5E4B3557
P 3600 6200
F 0 "L1" V 3790 6200 50  0000 C CNN
F 1 "3.9nH" V 3699 6200 50  0000 C CNN
F 2 "Inductor_SMD:L_0603_1608Metric_Pad1.05x0.95mm_HandSolder" H 3600 6200 50  0001 C CNN
F 3 "~" H 3600 6200 50  0001 C CNN
	1    3600 6200
	0    -1   -1   0   
$EndComp
$Comp
L Device:C C4
U 1 1 5E4B3DF1
P 3850 6350
F 0 "C4" H 3735 6304 50  0000 R CNN
F 1 "0.8pF" H 3735 6395 50  0000 R CNN
F 2 "Capacitor_SMD:C_0603_1608Metric_Pad1.08x0.95mm_HandSolder" H 3888 6200 50  0001 C CNN
F 3 "~" H 3850 6350 50  0001 C CNN
	1    3850 6350
	-1   0    0    1   
$EndComp
$Comp
L Device:L L2
U 1 1 5E4B41F6
P 4500 6200
F 0 "L2" V 4690 6200 50  0000 C CNN
F 1 "3.9nH" V 4599 6200 50  0000 C CNN
F 2 "Inductor_SMD:L_0603_1608Metric_Pad1.05x0.95mm_HandSolder" H 4500 6200 50  0001 C CNN
F 3 "~" H 4500 6200 50  0001 C CNN
	1    4500 6200
	0    -1   -1   0   
$EndComp
Connection ~ 3850 6200
$Comp
L Device:C C5
U 1 1 5E4B4672
P 4150 6200
F 0 "C5" V 3898 6200 50  0000 C CNN
F 1 "2.2pF" V 3989 6200 50  0000 C CNN
F 2 "Capacitor_SMD:C_0603_1608Metric_Pad1.08x0.95mm_HandSolder" H 4188 6050 50  0001 C CNN
F 3 "~" H 4150 6200 50  0001 C CNN
	1    4150 6200
	0    1    1    0   
$EndComp
$Comp
L power:GND #PWR0124
U 1 1 5E4BA422
P 3850 6500
F 0 "#PWR0124" H 3850 6250 50  0001 C CNN
F 1 "GND" H 3855 6327 50  0000 C CNN
F 2 "" H 3850 6500 50  0001 C CNN
F 3 "" H 3850 6500 50  0001 C CNN
	1    3850 6500
	1    0    0    -1  
$EndComp
Wire Wire Line
	4000 6200 3850 6200
Wire Wire Line
	3750 6200 3850 6200
Wire Wire Line
	3400 6200 3450 6200
Wire Wire Line
	4300 6200 4350 6200
Wire Wire Line
	4650 6200 4700 6200
Text GLabel 1550 5300 0    50   Output ~ 0
ITR0
Text GLabel 1550 5400 0    50   Output ~ 0
ITR1
Wire Wire Line
	1550 5300 1600 5300
Wire Wire Line
	1600 5400 1550 5400
$Comp
L Connector:Conn_01x10_Female J5
U 1 1 5E314CB7
P 3400 1250
F 0 "J5" H 3350 750 50  0000 C CNN
F 1 "Conn_01x10_Female" H 3350 850 50  0000 C CNN
F 2 "Connector_PinHeader_1.27mm:PinHeader_2x05_P1.27mm_Vertical_SMD" H 3400 1250 50  0001 C CNN
F 3 "~" H 3400 1250 50  0001 C CNN
	1    3400 1250
	-1   0    0    1   
$EndComp
$Comp
L power:+3V3 #PWR0126
U 1 1 5E32F9F8
P 3600 1650
F 0 "#PWR0126" H 3600 1500 50  0001 C CNN
F 1 "+3V3" H 3615 1823 50  0000 C CNN
F 2 "" H 3600 1650 50  0001 C CNN
F 3 "" H 3600 1650 50  0001 C CNN
	1    3600 1650
	0    1    1    0   
$EndComp
Text GLabel 2450 1050 2    50   Output ~ 0
NRFRXD
Text GLabel 2450 950  2    50   Input ~ 0
NRFTXD
Text GLabel 3600 1050 2    50   Output ~ 0
RXD
Text GLabel 3600 950  2    50   Input ~ 0
TXD
Wire Wire Line
	5000 2900 5050 2900
Wire Wire Line
	5050 3000 5000 3000
Wire Wire Line
	5000 3100 5050 3100
Text GLabel 5000 3000 0    50   Output ~ 0
PWM8
Text GLabel 5000 2900 0    50   Output ~ 0
PWM9
Text GLabel 6400 3100 2    50   Output ~ 0
PWM10
Text GLabel 5050 2700 0    50   Input ~ 0
ITR1
Text GLabel 6350 2700 2    50   Input ~ 0
ITR0
Wire Wire Line
	5050 3200 5000 3200
Text GLabel 6400 3200 2    50   Output ~ 0
PWM11
$Comp
L Connector:Conn_01x08_Female J1
U 1 1 5E1D7922
P 850 1250
F 0 "J1" H 742 625 50  0000 C CNN
F 1 "Conn_01x08_Female" H 742 716 50  0000 C CNN
F 2 "dim:WAGO_250-208" H 850 1250 50  0001 C CNN
F 3 "~" H 850 1250 50  0001 C CNN
	1    850  1250
	-1   0    0    1   
$EndComp
$Comp
L Device:C C9
U 1 1 5E5BB486
P 6700 1750
F 0 "C9" H 6585 1704 50  0000 R CNN
F 1 "100nF" H 6585 1795 50  0000 R CNN
F 2 "Capacitor_SMD:C_0603_1608Metric_Pad1.08x0.95mm_HandSolder" H 6738 1600 50  0001 C CNN
F 3 "~" H 6700 1750 50  0001 C CNN
	1    6700 1750
	-1   0    0    1   
$EndComp
$Comp
L Device:C C10
U 1 1 5E5C375F
P 7150 1750
F 0 "C10" H 7035 1704 50  0000 R CNN
F 1 "100nF" H 7035 1795 50  0000 R CNN
F 2 "Capacitor_SMD:C_0603_1608Metric_Pad1.08x0.95mm_HandSolder" H 7188 1600 50  0001 C CNN
F 3 "~" H 7150 1750 50  0001 C CNN
	1    7150 1750
	-1   0    0    1   
$EndComp
$Comp
L Device:C C12
U 1 1 5E5C4155
P 7600 1750
F 0 "C12" H 7485 1704 50  0000 R CNN
F 1 "100nF" H 7485 1795 50  0000 R CNN
F 2 "Capacitor_SMD:C_0603_1608Metric_Pad1.08x0.95mm_HandSolder" H 7638 1600 50  0001 C CNN
F 3 "~" H 7600 1750 50  0001 C CNN
	1    7600 1750
	-1   0    0    1   
$EndComp
$Comp
L Device:C C14
U 1 1 5E5C48D9
P 8050 1750
F 0 "C14" H 7935 1704 50  0000 R CNN
F 1 "100nF" H 7935 1795 50  0000 R CNN
F 2 "Capacitor_SMD:C_0603_1608Metric_Pad1.08x0.95mm_HandSolder" H 8088 1600 50  0001 C CNN
F 3 "~" H 8050 1750 50  0001 C CNN
	1    8050 1750
	-1   0    0    1   
$EndComp
$Comp
L Device:C C15
U 1 1 5E5C50C4
P 8500 1750
F 0 "C15" H 8385 1704 50  0000 R CNN
F 1 "100nF" H 8385 1795 50  0000 R CNN
F 2 "Capacitor_SMD:C_0603_1608Metric_Pad1.08x0.95mm_HandSolder" H 8538 1600 50  0001 C CNN
F 3 "~" H 8500 1750 50  0001 C CNN
	1    8500 1750
	-1   0    0    1   
$EndComp
$Comp
L power:GND #PWR0127
U 1 1 5E5CFCB6
P 6700 1900
F 0 "#PWR0127" H 6700 1650 50  0001 C CNN
F 1 "GND" H 6705 1727 50  0000 C CNN
F 2 "" H 6700 1900 50  0001 C CNN
F 3 "" H 6700 1900 50  0001 C CNN
	1    6700 1900
	1    0    0    -1  
$EndComp
$Comp
L power:+3V3 #PWR0128
U 1 1 5E5D0D29
P 6700 1600
F 0 "#PWR0128" H 6700 1450 50  0001 C CNN
F 1 "+3V3" H 6715 1773 50  0000 C CNN
F 2 "" H 6700 1600 50  0001 C CNN
F 3 "" H 6700 1600 50  0001 C CNN
	1    6700 1600
	1    0    0    -1  
$EndComp
$Comp
L Device:C C17
U 1 1 5E5D2FCC
P 8950 1750
F 0 "C17" H 8835 1704 50  0000 R CNN
F 1 "100nF" H 8835 1795 50  0000 R CNN
F 2 "Capacitor_SMD:C_0603_1608Metric_Pad1.08x0.95mm_HandSolder" H 8988 1600 50  0001 C CNN
F 3 "~" H 8950 1750 50  0001 C CNN
	1    8950 1750
	-1   0    0    1   
$EndComp
Wire Wire Line
	8950 1600 8500 1600
Connection ~ 6700 1600
Connection ~ 7150 1600
Wire Wire Line
	7150 1600 6700 1600
Connection ~ 7600 1600
Wire Wire Line
	7600 1600 7150 1600
Connection ~ 8050 1600
Wire Wire Line
	8050 1600 7600 1600
Connection ~ 8500 1600
Wire Wire Line
	8500 1600 8050 1600
Wire Wire Line
	8950 1900 8500 1900
Connection ~ 6700 1900
Connection ~ 7150 1900
Wire Wire Line
	7150 1900 6700 1900
Connection ~ 7600 1900
Wire Wire Line
	7600 1900 7150 1900
Connection ~ 8050 1900
Wire Wire Line
	8050 1900 7600 1900
Connection ~ 8500 1900
Wire Wire Line
	8500 1900 8050 1900
Text GLabel 1450 3400 2    50   Input ~ 0
PWM23
Wire Wire Line
	6950 1250 7500 1250
$Comp
L Memory_Flash:SST25VF080B-50-4x-S2Ax U6
U 1 1 5E422195
P 7500 5600
F 0 "U6" H 7600 5950 50  0000 L CNN
F 1 "25PF020B80-4C-S" H 7600 6050 50  0000 L CNN
F 2 "Package_SO:SOIC-8_3.9x4.9mm_P1.27mm" H 7500 4900 50  0001 C CNN
F 3 "http://ww1.microchip.com/downloads/en/DeviceDoc/20005045C.pdf" H 7450 6150 50  0001 C CNN
	1    7500 5600
	1    0    0    -1  
$EndComp
$Comp
L power:+3V3 #PWR0104
U 1 1 5E427C08
P 7500 5200
F 0 "#PWR0104" H 7500 5050 50  0001 C CNN
F 1 "+3V3" H 7515 5373 50  0000 C CNN
F 2 "" H 7500 5200 50  0001 C CNN
F 3 "" H 7500 5200 50  0001 C CNN
	1    7500 5200
	1    0    0    -1  
$EndComp
$Comp
L power:GND #PWR0131
U 1 1 5E428B04
P 7500 6000
F 0 "#PWR0131" H 7500 5750 50  0001 C CNN
F 1 "GND" H 7505 5827 50  0000 C CNN
F 2 "" H 7500 6000 50  0001 C CNN
F 3 "" H 7500 6000 50  0001 C CNN
	1    7500 6000
	1    0    0    -1  
$EndComp
$Comp
L Device:C C18
U 1 1 5E4291D1
P 9400 1750
F 0 "C18" H 9285 1704 50  0000 R CNN
F 1 "100nF" H 9285 1795 50  0000 R CNN
F 2 "Capacitor_SMD:C_0603_1608Metric_Pad1.08x0.95mm_HandSolder" H 9438 1600 50  0001 C CNN
F 3 "~" H 9400 1750 50  0001 C CNN
	1    9400 1750
	-1   0    0    1   
$EndComp
$Comp
L Device:C C19
U 1 1 5E42A663
P 9900 1750
F 0 "C19" H 9785 1704 50  0000 R CNN
F 1 "100nF" H 9785 1795 50  0000 R CNN
F 2 "Capacitor_SMD:C_0603_1608Metric_Pad1.08x0.95mm_HandSolder" H 9938 1600 50  0001 C CNN
F 3 "~" H 9900 1750 50  0001 C CNN
	1    9900 1750
	-1   0    0    1   
$EndComp
Wire Wire Line
	9900 1600 9400 1600
Wire Wire Line
	9400 1600 8950 1600
Connection ~ 9400 1600
Connection ~ 8950 1600
Wire Wire Line
	8950 1900 9400 1900
Connection ~ 8950 1900
Wire Wire Line
	9400 1900 9900 1900
Connection ~ 9400 1900
Text GLabel 7100 5500 0    50   Input ~ 0
SCK
Text GLabel 7900 5400 2    50   Output ~ 0
MISO
Text GLabel 7100 5400 0    50   Input ~ 0
MOSI
$Comp
L Device:R R7
U 1 1 5E48015A
P 6650 5450
F 0 "R7" H 6580 5404 50  0000 R CNN
F 1 "75R" H 6580 5495 50  0000 R CNN
F 2 "Resistor_SMD:R_0603_1608Metric_Pad0.98x0.95mm_HandSolder" V 6580 5450 50  0001 C CNN
F 3 "~" H 6650 5450 50  0001 C CNN
	1    6650 5450
	-1   0    0    1   
$EndComp
Wire Wire Line
	7500 5200 6650 5200
Wire Wire Line
	6650 5200 6650 5300
Connection ~ 7500 5200
$Comp
L Device:R R8
U 1 1 5E4CF0F1
P 8600 5350
F 0 "R8" H 8530 5304 50  0000 R CNN
F 1 "10K" H 8530 5395 50  0000 R CNN
F 2 "Resistor_SMD:R_0603_1608Metric_Pad0.98x0.95mm_HandSolder" V 8530 5350 50  0001 C CNN
F 3 "~" H 8600 5350 50  0001 C CNN
	1    8600 5350
	-1   0    0    1   
$EndComp
Wire Wire Line
	8600 5700 8600 5500
Wire Wire Line
	8750 5200 8600 5200
Wire Wire Line
	7100 5600 6950 5600
Connection ~ 8750 5200
Wire Wire Line
	8900 5200 8750 5200
Wire Wire Line
	9150 5700 8600 5700
$Comp
L power:+3V3 #PWR0132
U 1 1 5E4CEB81
P 8750 5200
F 0 "#PWR0132" H 8750 5050 50  0001 C CNN
F 1 "+3V3" H 8765 5373 50  0000 C CNN
F 2 "" H 8750 5200 50  0001 C CNN
F 3 "" H 8750 5200 50  0001 C CNN
	1    8750 5200
	1    0    0    -1  
$EndComp
Wire Wire Line
	8900 5600 8900 5500
Wire Wire Line
	9150 5600 8900 5600
$Comp
L Device:R R9
U 1 1 5E4A5254
P 8900 5350
F 0 "R9" H 8830 5304 50  0000 R CNN
F 1 "10K" H 8830 5395 50  0000 R CNN
F 2 "Resistor_SMD:R_0603_1608Metric_Pad0.98x0.95mm_HandSolder" V 8830 5350 50  0001 C CNN
F 3 "~" H 8900 5350 50  0001 C CNN
	1    8900 5350
	-1   0    0    1   
$EndComp
Text GLabel 9950 5600 2    50   Input ~ 0
MOSI
Text GLabel 9950 5700 2    50   Output ~ 0
MISO
Text GLabel 9950 5500 2    50   Input ~ 0
SCK
$Comp
L power:GND #PWR0133
U 1 1 5E428574
P 9550 5900
F 0 "#PWR0133" H 9550 5650 50  0001 C CNN
F 1 "GND" H 9555 5727 50  0000 C CNN
F 2 "" H 9550 5900 50  0001 C CNN
F 3 "" H 9550 5900 50  0001 C CNN
	1    9550 5900
	1    0    0    -1  
$EndComp
$Comp
L power:+3V3 #PWR0134
U 1 1 5E42803B
P 9550 5300
F 0 "#PWR0134" H 9550 5150 50  0001 C CNN
F 1 "+3V3" H 9565 5473 50  0000 C CNN
F 2 "" H 9550 5300 50  0001 C CNN
F 3 "" H 9550 5300 50  0001 C CNN
	1    9550 5300
	1    0    0    -1  
$EndComp
$Comp
L Memory_EEPROM:25LCxxx U7
U 1 1 5E414689
P 9550 5600
F 0 "U7" H 9700 5850 50  0000 C CNN
F 1 "25LC020A-I/SN" H 9950 5950 50  0000 C CNN
F 2 "Package_SO:SO-8_3.9x4.9mm_P1.27mm" H 9550 5600 50  0001 C CNN
F 3 "http://ww1.microchip.com/downloads/en/DeviceDoc/20001749K.pdf" H 9550 5600 50  0001 C CNN
	1    9550 5600
	1    0    0    -1  
$EndComp
$Comp
L Device:R R6
U 1 1 5E571BA9
P 6350 5450
F 0 "R6" H 6280 5404 50  0000 R CNN
F 1 "75R" H 6280 5495 50  0000 R CNN
F 2 "Resistor_SMD:R_0603_1608Metric_Pad0.98x0.95mm_HandSolder" V 6280 5450 50  0001 C CNN
F 3 "~" H 6350 5450 50  0001 C CNN
	1    6350 5450
	-1   0    0    1   
$EndComp
Wire Wire Line
	6650 5200 6350 5200
Wire Wire Line
	6350 5200 6350 5300
Connection ~ 6650 5200
Wire Wire Line
	6350 5600 6350 5800
Wire Wire Line
	6350 5800 7100 5800
Text GLabel 6850 5700 0    50   Input ~ 0
FLASH_NCE
Wire Wire Line
	6850 5700 6950 5700
Wire Wire Line
	6950 5700 6950 5600
Connection ~ 6950 5600
Wire Wire Line
	6950 5600 6650 5600
Text GLabel 9050 5800 0    50   Input ~ 0
EEPROM_NCE
Wire Wire Line
	9050 5800 9150 5800
Wire Wire Line
	9150 5800 9150 5700
Connection ~ 9150 5700
$Comp
L power:+5V #PWR0135
U 1 1 5E5AFC65
P 6950 750
F 0 "#PWR0135" H 6950 600 50  0001 C CNN
F 1 "+5V" H 6965 923 50  0000 C CNN
F 2 "" H 6950 750 50  0001 C CNN
F 3 "" H 6950 750 50  0001 C CNN
	1    6950 750 
	1    0    0    -1  
$EndComp
Text GLabel 5000 3500 0    50   Output ~ 0
FLASH_NCE
Text GLabel 5050 2000 0    50   Output ~ 0
EEPROM_NCE
Text GLabel 1000 5700 0    50   Input ~ 0
NRF_NCE
$Comp
L Device:R R5
U 1 1 5E5FC78D
P 1150 5550
F 0 "R5" H 1080 5504 50  0000 R CNN
F 1 "10K" H 1080 5595 50  0000 R CNN
F 2 "Resistor_SMD:R_0603_1608Metric_Pad0.98x0.95mm_HandSolder" V 1080 5550 50  0001 C CNN
F 3 "~" H 1150 5550 50  0001 C CNN
	1    1150 5550
	-1   0    0    1   
$EndComp
$Comp
L power:+3V3 #PWR0136
U 1 1 5E600A90
P 1150 5400
F 0 "#PWR0136" H 1150 5250 50  0001 C CNN
F 1 "+3V3" H 1165 5573 50  0000 C CNN
F 2 "" H 1150 5400 50  0001 C CNN
F 3 "" H 1150 5400 50  0001 C CNN
	1    1150 5400
	1    0    0    -1  
$EndComp
Wire Wire Line
	1000 5700 1150 5700
Text GLabel 5050 2100 0    50   Output ~ 0
NRF_NCE
$Comp
L dim:RJ45_LED J6
U 1 1 5E1CF282
P 9200 3550
F 0 "J6" H 9200 2983 50  0000 C CNN
F 1 "RJ45_LED" H 9200 3074 50  0000 C CNN
F 2 "Connector_RJ:RJ45_OST_PJ012-8P8CX_Vertical" V 9200 3575 50  0001 C CNN
F 3 "~" V 9200 3575 50  0001 C CNN
	1    9200 3550
	1    0    0    -1  
$EndComp
Wire Wire Line
	8400 3600 8400 3500
Wire Wire Line
	8400 3500 8800 3500
Wire Wire Line
	8400 3400 8600 3400
Wire Wire Line
	8600 3400 8600 3600
Wire Wire Line
	8600 3600 8800 3600
$Comp
L power:GND #PWR0137
U 1 1 5E68DB37
P 8800 3200
F 0 "#PWR0137" H 8800 2950 50  0001 C CNN
F 1 "GND" H 8805 3027 50  0000 C CNN
F 2 "" H 8800 3200 50  0001 C CNN
F 3 "" H 8800 3200 50  0001 C CNN
	1    8800 3200
	0    1    1    0   
$EndComp
$Comp
L power:GND #PWR0138
U 1 1 5E68E077
P 8800 3900
F 0 "#PWR0138" H 8800 3650 50  0001 C CNN
F 1 "GND" H 8805 3727 50  0000 C CNN
F 2 "" H 8800 3900 50  0001 C CNN
F 3 "" H 8800 3900 50  0001 C CNN
	1    8800 3900
	0    1    1    0   
$EndComp
$Comp
L power:+5V #PWR0139
U 1 1 5E68E4E1
P 8600 3800
F 0 "#PWR0139" H 8600 3650 50  0001 C CNN
F 1 "+5V" H 8615 3973 50  0000 C CNN
F 2 "" H 8600 3800 50  0001 C CNN
F 3 "" H 8600 3800 50  0001 C CNN
	1    8600 3800
	0    -1   -1   0   
$EndComp
$Comp
L power:+12V #PWR0140
U 1 1 5E697F3A
P 8600 3300
F 0 "#PWR0140" H 8600 3150 50  0001 C CNN
F 1 "+12V" H 8615 3473 50  0000 C CNN
F 2 "" H 8600 3300 50  0001 C CNN
F 3 "" H 8600 3300 50  0001 C CNN
	1    8600 3300
	0    -1   -1   0   
$EndComp
Wire Wire Line
	8600 3300 8800 3300
Text GLabel 1450 3600 2    50   Input ~ 0
PWM25
Text GLabel 1450 3500 2    50   Input ~ 0
PWM24
$Comp
L Device:C C20
U 1 1 5E73E97D
P 10350 1750
F 0 "C20" H 10235 1704 50  0000 R CNN
F 1 "100nF" H 10235 1795 50  0000 R CNN
F 2 "Capacitor_SMD:C_0603_1608Metric_Pad1.08x0.95mm_HandSolder" H 10388 1600 50  0001 C CNN
F 3 "~" H 10350 1750 50  0001 C CNN
	1    10350 1750
	-1   0    0    1   
$EndComp
$Comp
L Device:C C21
U 1 1 5E73EEB0
P 10800 1750
F 0 "C21" H 10685 1704 50  0000 R CNN
F 1 "100nF" H 10685 1795 50  0000 R CNN
F 2 "Capacitor_SMD:C_0603_1608Metric_Pad1.08x0.95mm_HandSolder" H 10838 1600 50  0001 C CNN
F 3 "~" H 10800 1750 50  0001 C CNN
	1    10800 1750
	-1   0    0    1   
$EndComp
Wire Wire Line
	10800 1600 10350 1600
Wire Wire Line
	10350 1600 9900 1600
Connection ~ 10350 1600
Connection ~ 9900 1600
Wire Wire Line
	9900 1900 10350 1900
Connection ~ 9900 1900
Wire Wire Line
	10350 1900 10800 1900
Connection ~ 10350 1900
$Comp
L Device:R R11
U 1 1 5E7DE0FF
P 4800 900
F 0 "R11" V 5007 900 50  0000 C CNN
F 1 "4K7" V 4916 900 50  0000 C CNN
F 2 "Resistor_SMD:R_0603_1608Metric_Pad0.98x0.95mm_HandSolder" V 4730 900 50  0001 C CNN
F 3 "~" H 4800 900 50  0001 C CNN
	1    4800 900 
	-1   0    0    1   
$EndComp
$Comp
L power:+3V3 #PWR0141
U 1 1 5E7DEA6E
P 4800 750
F 0 "#PWR0141" H 4800 600 50  0001 C CNN
F 1 "+3V3" H 4815 923 50  0000 C CNN
F 2 "" H 4800 750 50  0001 C CNN
F 3 "" H 4800 750 50  0001 C CNN
	1    4800 750 
	1    0    0    -1  
$EndComp
Wire Wire Line
	5000 1200 4800 1200
Wire Wire Line
	4800 1200 4800 1050
Connection ~ 5000 1200
Wire Wire Line
	4300 1200 4800 1200
Connection ~ 4800 1200
Text Label 4650 1900 0    50   ~ 0
NRF_NRST
Text GLabel 1600 4300 0    50   Output ~ 0
PWM15
Text GLabel 1600 4200 0    50   Output ~ 0
PWM14
Text GLabel 1600 4900 0    50   Input ~ 0
NRFRXD
Text GLabel 1600 4800 0    50   Output ~ 0
NRFTXD
Text GLabel 1600 4000 0    50   Output ~ 0
PWM17
Text GLabel 1600 4100 0    50   Output ~ 0
PWM16
$Comp
L Connector:Conn_01x02_Female J7
U 1 1 5E8D508C
P 3200 2650
F 0 "J7" H 3000 2750 50  0000 C CNN
F 1 "Conn_01x02_Female" H 3000 2400 50  0000 C CNN
F 2 "Connector_PinHeader_2.54mm:PinHeader_1x02_P2.54mm_Vertical_SMD_Pin1Left" H 3200 2650 50  0001 C CNN
F 3 "~" H 3200 2650 50  0001 C CNN
	1    3200 2650
	-1   0    0    1   
$EndComp
Wire Wire Line
	5000 3500 5050 3500
Wire Wire Line
	5050 1900 4200 1900
Wire Wire Line
	4200 1900 4200 4900
Text GLabel 1550 6700 0    50   Output ~ 0
PWM21
Text GLabel 1550 6800 0    50   Output ~ 0
PWM20
Text GLabel 1550 6900 0    50   Output ~ 0
PWM19
Wire Wire Line
	1550 7000 1600 7000
Text GLabel 1600 6300 0    50   Output ~ 0
PWM25
Text GLabel 1600 6600 0    50   Output ~ 0
PWM22
Text GLabel 1600 6500 0    50   Output ~ 0
PWM23
Text GLabel 1600 6400 0    50   Output ~ 0
PWM24
Text GLabel 1600 6000 0    50   Input ~ 0
MOSI
Connection ~ 1150 5700
$Comp
L Device:R R3
U 1 1 5EABA035
P 8300 5350
F 0 "R3" H 8230 5304 50  0000 R CNN
F 1 "10K" H 8230 5395 50  0000 R CNN
F 2 "Resistor_SMD:R_0603_1608Metric_Pad0.98x0.95mm_HandSolder" V 8230 5350 50  0001 C CNN
F 3 "~" H 8300 5350 50  0001 C CNN
	1    8300 5350
	-1   0    0    1   
$EndComp
Wire Wire Line
	8600 5200 8300 5200
Connection ~ 8600 5200
Wire Wire Line
	8300 5500 9150 5500
Wire Wire Line
	8300 6350 8300 5500
Connection ~ 8300 5500
$Comp
L Device:Antenna_Chip AE1
U 1 1 5E296050
P 4800 6100
F 0 "AE1" H 4880 6089 50  0000 L CNN
F 1 "Antenna" H 4880 5998 50  0000 L CNN
F 2 "RF_Antenna:Texas_SWRA117D_2.4GHz_Right" H 4800 6100 50  0001 C CNN
F 3 "~" H 4800 6100 50  0001 C CNN
	1    4800 6100
	1    0    0    -1  
$EndComp
$Comp
L power:GND #PWR0116
U 1 1 5EAEE451
P 4900 6200
F 0 "#PWR0116" H 4900 5950 50  0001 C CNN
F 1 "GND" H 4905 6027 50  0000 C CNN
F 2 "" H 4900 6200 50  0001 C CNN
F 3 "" H 4900 6200 50  0001 C CNN
	1    4900 6200
	1    0    0    -1  
$EndComp
Wire Wire Line
	1600 5700 1150 5700
$Comp
L Device:R R12
U 1 1 5EB4A295
P 1050 4300
F 0 "R12" H 980 4254 50  0000 R CNN
F 1 "75R" H 980 4345 50  0000 R CNN
F 2 "Resistor_SMD:R_0603_1608Metric_Pad0.98x0.95mm_HandSolder" V 980 4300 50  0001 C CNN
F 3 "~" H 1050 4300 50  0001 C CNN
	1    1050 4300
	1    0    0    -1  
$EndComp
$Comp
L Device:R R4
U 1 1 5EB4DA57
P 700 4300
F 0 "R4" H 630 4254 50  0000 R CNN
F 1 "75R" H 630 4345 50  0000 R CNN
F 2 "Resistor_SMD:R_0603_1608Metric_Pad0.98x0.95mm_HandSolder" V 630 4300 50  0001 C CNN
F 3 "~" H 700 4300 50  0001 C CNN
	1    700  4300
	1    0    0    -1  
$EndComp
Wire Wire Line
	700  4600 700  4450
Wire Wire Line
	1600 4500 1050 4500
Wire Wire Line
	1050 4500 1050 4450
$Comp
L Device:LED D1
U 1 1 5EBA10D4
P 700 4000
F 0 "D1" V 739 3883 50  0000 R CNN
F 1 "LED" V 648 3883 50  0000 R CNN
F 2 "LED_SMD:LED_0603_1608Metric_Pad1.05x0.95mm_HandSolder" H 700 4000 50  0001 C CNN
F 3 "~" H 700 4000 50  0001 C CNN
	1    700  4000
	0    -1   -1   0   
$EndComp
$Comp
L Device:LED D2
U 1 1 5EBC066E
P 1050 4000
F 0 "D2" V 1089 3883 50  0000 R CNN
F 1 "LED" V 998 3883 50  0000 R CNN
F 2 "LED_SMD:LED_0603_1608Metric_Pad1.05x0.95mm_HandSolder" H 1050 4000 50  0001 C CNN
F 3 "~" H 1050 4000 50  0001 C CNN
	1    1050 4000
	0    -1   -1   0   
$EndComp
$Comp
L power:+3V3 #PWR0117
U 1 1 5EBC0C86
P 700 3850
F 0 "#PWR0117" H 700 3700 50  0001 C CNN
F 1 "+3V3" H 715 4023 50  0000 C CNN
F 2 "" H 700 3850 50  0001 C CNN
F 3 "" H 700 3850 50  0001 C CNN
	1    700  3850
	1    0    0    -1  
$EndComp
Wire Wire Line
	700  3850 1050 3850
Connection ~ 700  3850
Wire Wire Line
	700  4600 1600 4600
$Comp
L power:+3V3 #PWR0142
U 1 1 5EBF9A45
P 10200 2350
F 0 "#PWR0142" H 10200 2200 50  0001 C CNN
F 1 "+3V3" H 10215 2523 50  0000 C CNN
F 2 "" H 10200 2350 50  0001 C CNN
F 3 "" H 10200 2350 50  0001 C CNN
	1    10200 2350
	1    0    0    -1  
$EndComp
Wire Wire Line
	4600 1600 5050 1600
Text Label 4600 1600 0    50   ~ 0
LED0
Text Label 4600 1700 0    50   ~ 0
LED1
Wire Wire Line
	10500 2350 10200 2350
Connection ~ 10200 2350
$Comp
L Device:R R13
U 1 1 5EBDB450
P 10200 2800
F 0 "R13" H 10130 2754 50  0000 R CNN
F 1 "1K7" H 10130 2845 50  0000 R CNN
F 2 "Resistor_SMD:R_0603_1608Metric_Pad0.98x0.95mm_HandSolder" V 10130 2800 50  0001 C CNN
F 3 "~" H 10200 2800 50  0001 C CNN
	1    10200 2800
	1    0    0    -1  
$EndComp
$Comp
L Device:R R14
U 1 1 5EBE013D
P 10500 2800
F 0 "R14" H 10430 2754 50  0000 R CNN
F 1 "1K7" H 10430 2845 50  0000 R CNN
F 2 "Resistor_SMD:R_0603_1608Metric_Pad0.98x0.95mm_HandSolder" V 10430 2800 50  0001 C CNN
F 3 "~" H 10500 2800 50  0001 C CNN
	1    10500 2800
	1    0    0    -1  
$EndComp
$Comp
L Device:LED D3
U 1 1 5EBF83F7
P 10200 2500
F 0 "D3" V 10239 2383 50  0000 R CNN
F 1 "LED" V 10148 2383 50  0000 R CNN
F 2 "LED_SMD:LED_0603_1608Metric_Pad1.05x0.95mm_HandSolder" H 10200 2500 50  0001 C CNN
F 3 "~" H 10200 2500 50  0001 C CNN
	1    10200 2500
	0    -1   -1   0   
$EndComp
$Comp
L Device:LED D4
U 1 1 5EBF9030
P 10500 2500
F 0 "D4" V 10539 2383 50  0000 R CNN
F 1 "LED" V 10448 2383 50  0000 R CNN
F 2 "LED_SMD:LED_0603_1608Metric_Pad1.05x0.95mm_HandSolder" H 10500 2500 50  0001 C CNN
F 3 "~" H 10500 2500 50  0001 C CNN
	1    10500 2500
	0    -1   -1   0   
$EndComp
Wire Wire Line
	10500 2950 10850 2950
Wire Wire Line
	10200 2950 10200 3150
Wire Wire Line
	10200 3150 10850 3150
Text Label 10850 3150 2    50   ~ 0
LED0
Text Label 10850 2950 2    50   ~ 0
LED1
Wire Wire Line
	5050 1700 4600 1700
Text GLabel 5050 3400 0    50   Input ~ 0
RXD
Text GLabel 5050 3300 0    50   Input ~ 0
TXD
Text Label 4300 1200 0    50   ~ 0
NRST
Text Label 6800 3300 0    50   ~ 0
CAN_TXD
Text Label 6800 3400 0    50   ~ 0
CAN_RXD
Text Label 6800 3700 0    50   ~ 0
CAN_STBY
Text Label 8500 3400 0    50   ~ 0
CANH
Text Label 8400 3500 0    50   ~ 0
CANL
Text Label 1200 4600 0    50   ~ 0
LED2
Text Label 1200 4500 0    50   ~ 0
LED3
Text Label 3400 6200 0    50   ~ 0
ANT
Text Label 2850 7400 0    50   ~ 0
DEC3
Text Label 3050 7200 0    50   ~ 0
DEC1
Text Label 2700 7300 3    50   ~ 0
DEC4
Wire Wire Line
	8300 6350 7100 6350
Wire Notes Line
	10650 6400 6150 6400
Wire Notes Line
	6150 6400 6150 4750
Wire Notes Line
	6150 4750 10650 4750
Wire Notes Line
	10650 4750 10650 6400
Text Notes 6200 4950 0    100  ~ 0
Flash and EEPROM
$Comp
L power:GND #PWR0125
U 1 1 5E4E2D5F
P 3600 1450
F 0 "#PWR0125" H 3600 1200 50  0001 C CNN
F 1 "GND" H 3605 1277 50  0000 C CNN
F 2 "" H 3600 1450 50  0001 C CNN
F 3 "" H 3600 1450 50  0001 C CNN
	1    3600 1450
	0    -1   -1   0   
$EndComp
$Comp
L power:GND #PWR0143
U 1 1 5E4E8405
P 3600 1250
F 0 "#PWR0143" H 3600 1000 50  0001 C CNN
F 1 "GND" H 3605 1077 50  0000 C CNN
F 2 "" H 3600 1250 50  0001 C CNN
F 3 "" H 3600 1250 50  0001 C CNN
	1    3600 1250
	0    -1   -1   0   
$EndComp
$Comp
L power:GND #PWR0144
U 1 1 5E4F63A3
P 3600 850
F 0 "#PWR0144" H 3600 600 50  0001 C CNN
F 1 "GND" H 3605 677 50  0000 C CNN
F 2 "" H 3600 850 50  0001 C CNN
F 3 "" H 3600 850 50  0001 C CNN
	1    3600 850 
	0    -1   -1   0   
$EndComp
Wire Wire Line
	4300 1200 4300 750 
Wire Wire Line
	4300 750  3600 750 
Wire Wire Line
	7100 5700 7100 6350
Wire Wire Line
	4200 1900 3150 1900
Wire Wire Line
	3150 1900 3150 750 
Wire Wire Line
	3150 750  2450 750 
Connection ~ 4200 1900
Text GLabel 2450 2700 3    50   BiDi ~ 0
NRFSWDIO
Text GLabel 2600 2700 3    50   BiDi ~ 0
SWDIO
Text GLabel 2750 2700 3    50   Output ~ 0
NRFSWDCLK
Text GLabel 2900 2700 3    50   Output ~ 0
SWCLK
$Comp
L Device:R R15
U 1 1 5E573715
P 2450 2550
F 0 "R15" H 2380 2504 50  0000 R CNN
F 1 "100K" H 2380 2595 50  0000 R CNN
F 2 "Resistor_SMD:R_0603_1608Metric_Pad0.98x0.95mm_HandSolder" V 2380 2550 50  0001 C CNN
F 3 "~" H 2450 2550 50  0001 C CNN
	1    2450 2550
	1    0    0    -1  
$EndComp
$Comp
L Device:R R16
U 1 1 5E5752DE
P 2600 2550
F 0 "R16" H 2530 2504 50  0000 R CNN
F 1 "100K" H 2530 2595 50  0000 R CNN
F 2 "Resistor_SMD:R_0603_1608Metric_Pad0.98x0.95mm_HandSolder" V 2530 2550 50  0001 C CNN
F 3 "~" H 2600 2550 50  0001 C CNN
	1    2600 2550
	1    0    0    -1  
$EndComp
$Comp
L Device:R R17
U 1 1 5E575861
P 2750 2550
F 0 "R17" H 2680 2504 50  0000 R CNN
F 1 "100K" H 2680 2595 50  0000 R CNN
F 2 "Resistor_SMD:R_0603_1608Metric_Pad0.98x0.95mm_HandSolder" V 2680 2550 50  0001 C CNN
F 3 "~" H 2750 2550 50  0001 C CNN
	1    2750 2550
	1    0    0    -1  
$EndComp
$Comp
L Device:R R18
U 1 1 5E575D22
P 2900 2550
F 0 "R18" H 2830 2504 50  0000 R CNN
F 1 "100K" H 2830 2595 50  0000 R CNN
F 2 "Resistor_SMD:R_0603_1608Metric_Pad0.98x0.95mm_HandSolder" V 2830 2550 50  0001 C CNN
F 3 "~" H 2900 2550 50  0001 C CNN
	1    2900 2550
	1    0    0    -1  
$EndComp
$Comp
L power:GND #PWR0147
U 1 1 5E58837D
P 2750 2400
F 0 "#PWR0147" H 2750 2150 50  0001 C CNN
F 1 "GND" H 2755 2227 50  0000 C CNN
F 2 "" H 2750 2400 50  0001 C CNN
F 3 "" H 2750 2400 50  0001 C CNN
	1    2750 2400
	-1   0    0    1   
$EndComp
$Comp
L power:+3V3 #PWR0148
U 1 1 5E588BB4
P 2450 2400
F 0 "#PWR0148" H 2450 2250 50  0001 C CNN
F 1 "+3V3" H 2465 2573 50  0000 C CNN
F 2 "" H 2450 2400 50  0001 C CNN
F 3 "" H 2450 2400 50  0001 C CNN
	1    2450 2400
	1    0    0    -1  
$EndComp
Wire Wire Line
	2900 2400 2750 2400
Connection ~ 2750 2400
Wire Wire Line
	2600 2400 2450 2400
Connection ~ 2450 2400
$Comp
L Device:Crystal Y1
U 1 1 5E55B880
P 3750 5500
F 0 "Y1" V 3704 5631 50  0000 L CNN
F 1 "32 MHz" V 3795 5631 50  0000 L CNN
F 2 "Crystal:Crystal_SMD_2016-4Pin_2.0x1.6mm" H 3750 5500 50  0001 C CNN
F 3 "https://www.mouser.de/datasheet/2/96/402W-1628332.pdf" H 3750 5500 50  0001 C CNN
	1    3750 5500
	0    1    1    0   
$EndComp
$Comp
L Device:C C22
U 1 1 5E55BEBC
P 4150 5300
F 0 "C22" V 3898 5300 50  0000 C CNN
F 1 "12pF" V 3989 5300 50  0000 C CNN
F 2 "Capacitor_SMD:C_0603_1608Metric_Pad1.08x0.95mm_HandSolder" H 4188 5150 50  0001 C CNN
F 3 "~" H 4150 5300 50  0001 C CNN
	1    4150 5300
	0    1    1    0   
$EndComp
$Comp
L Device:C C23
U 1 1 5E55CDB6
P 4150 5700
F 0 "C23" V 3898 5700 50  0000 C CNN
F 1 "12pF" V 3989 5700 50  0000 C CNN
F 2 "Capacitor_SMD:C_0603_1608Metric_Pad1.08x0.95mm_HandSolder" H 4188 5550 50  0001 C CNN
F 3 "~" H 4150 5700 50  0001 C CNN
	1    4150 5700
	0    1    1    0   
$EndComp
$Comp
L power:GND #PWR0149
U 1 1 5E56DC4D
P 4300 5500
F 0 "#PWR0149" H 4300 5250 50  0001 C CNN
F 1 "GND" H 4305 5327 50  0000 C CNN
F 2 "" H 4300 5500 50  0001 C CNN
F 3 "" H 4300 5500 50  0001 C CNN
	1    4300 5500
	0    -1   -1   0   
$EndComp
Wire Wire Line
	4300 5700 4300 5500
Connection ~ 4300 5500
Wire Wire Line
	4300 5500 4300 5300
Wire Wire Line
	4000 5300 3750 5300
Wire Wire Line
	3400 5700 3750 5700
Wire Wire Line
	3750 5650 3750 5700
Connection ~ 3750 5700
Wire Wire Line
	3750 5700 4000 5700
Wire Wire Line
	3750 5350 3750 5300
Connection ~ 3750 5300
Wire Wire Line
	3750 5300 3400 5300
$Comp
L power:+3V3 #PWR0114
U 1 1 5E29C0DB
P 2450 1650
F 0 "#PWR0114" H 2450 1500 50  0001 C CNN
F 1 "+3V3" H 2465 1823 50  0000 C CNN
F 2 "" H 2450 1650 50  0001 C CNN
F 3 "" H 2450 1650 50  0001 C CNN
	1    2450 1650
	0    1    1    0   
$EndComp
$Comp
L power:GND #PWR0113
U 1 1 5E29B7A2
P 2450 1450
F 0 "#PWR0113" H 2450 1200 50  0001 C CNN
F 1 "GND" H 2455 1277 50  0000 C CNN
F 2 "" H 2450 1450 50  0001 C CNN
F 3 "" H 2450 1450 50  0001 C CNN
	1    2450 1450
	0    -1   -1   0   
$EndComp
$Comp
L power:GND #PWR0146
U 1 1 5E56161B
P 2450 1250
F 0 "#PWR0146" H 2450 1000 50  0001 C CNN
F 1 "GND" H 2455 1077 50  0000 C CNN
F 2 "" H 2450 1250 50  0001 C CNN
F 3 "" H 2450 1250 50  0001 C CNN
	1    2450 1250
	0    -1   -1   0   
$EndComp
$Comp
L power:GND #PWR0145
U 1 1 5E54AB75
P 2450 850
F 0 "#PWR0145" H 2450 600 50  0001 C CNN
F 1 "GND" H 2455 677 50  0000 C CNN
F 2 "" H 2450 850 50  0001 C CNN
F 3 "" H 2450 850 50  0001 C CNN
	1    2450 850 
	0    -1   -1   0   
$EndComp
$Comp
L Connector:Conn_01x10_Female J4
U 1 1 5E313565
P 2250 1250
F 0 "J4" H 2150 750 50  0000 C CNN
F 1 "Conn_02x05_Female" H 2200 850 50  0000 C CNN
F 2 "Connector_PinHeader_1.27mm:PinHeader_2x05_P1.27mm_Vertical_SMD" H 2250 1250 50  0001 C CNN
F 3 "~" H 2250 1250 50  0001 C CNN
	1    2250 1250
	-1   0    0    1   
$EndComp
Text GLabel 2450 1550 2    50   BiDi ~ 0
NRFSWDIO
Text GLabel 2450 1350 2    50   Output ~ 0
NRFSWDCLK
Text GLabel 2150 2700 3    50   Output ~ 0
NRFRXD
$Comp
L Device:R R45
U 1 1 5E634541
P 2150 2550
F 0 "R45" V 2357 2550 50  0000 C CNN
F 1 "100K" V 2266 2550 50  0000 C CNN
F 2 "Resistor_SMD:R_0603_1608Metric_Pad0.98x0.95mm_HandSolder" V 2080 2550 50  0001 C CNN
F 3 "~" H 2150 2550 50  0001 C CNN
	1    2150 2550
	1    0    0    -1  
$EndComp
Text GLabel 2250 2700 3    50   Output ~ 0
RXD
$Comp
L Device:R R48
U 1 1 5E67DD69
P 2250 2550
F 0 "R48" V 2457 2550 50  0000 C CNN
F 1 "100K" V 2366 2550 50  0000 C CNN
F 2 "Resistor_SMD:R_0603_1608Metric_Pad0.98x0.95mm_HandSolder" V 2180 2550 50  0001 C CNN
F 3 "~" H 2250 2550 50  0001 C CNN
	1    2250 2550
	1    0    0    -1  
$EndComp
$Comp
L Device:R_Pack04 RN6
U 1 1 5EB61379
P 1250 3500
F 0 "RN6" V 833 3500 50  0000 C CNN
F 1 "R_Pack04" V 924 3500 50  0000 C CNN
F 2 "Resistor_SMD:R_Array_Convex_4x0402" V 1525 3500 50  0001 C CNN
F 3 "~" H 1250 3500 50  0001 C CNN
	1    1250 3500
	0    1    1    0   
$EndComp
$Comp
L Device:R_Pack04 RN5
U 1 1 5EB86A54
P 1250 3100
F 0 "RN5" V 833 3100 50  0000 C CNN
F 1 "R_Pack04" V 924 3100 50  0000 C CNN
F 2 "Resistor_SMD:R_Array_Convex_4x0402" V 1525 3100 50  0001 C CNN
F 3 "~" H 1250 3100 50  0001 C CNN
	1    1250 3100
	0    1    1    0   
$EndComp
$Comp
L Device:R_Pack04 RN4
U 1 1 5EBA5DE7
P 1250 2500
F 0 "RN4" V 833 2500 50  0000 C CNN
F 1 "R_Pack04" V 924 2500 50  0000 C CNN
F 2 "Resistor_SMD:R_Array_Convex_4x0402" V 1525 2500 50  0001 C CNN
F 3 "~" H 1250 2500 50  0001 C CNN
	1    1250 2500
	0    1    1    0   
$EndComp
$Comp
L Device:R_Pack04 RN3
U 1 1 5EBA6732
P 1250 2100
F 0 "RN3" V 833 2100 50  0000 C CNN
F 1 "R_Pack04" V 924 2100 50  0000 C CNN
F 2 "Resistor_SMD:R_Array_Convex_4x0402" V 1525 2100 50  0001 C CNN
F 3 "~" H 1250 2100 50  0001 C CNN
	1    1250 2100
	0    1    1    0   
$EndComp
$Comp
L Device:R_Pack04 RN2
U 1 1 5EBC464C
P 1250 1450
F 0 "RN2" V 833 1450 50  0000 C CNN
F 1 "R_Pack04" V 924 1450 50  0000 C CNN
F 2 "Resistor_SMD:R_Array_Convex_4x0402" V 1525 1450 50  0001 C CNN
F 3 "~" H 1250 1450 50  0001 C CNN
	1    1250 1450
	0    1    1    0   
$EndComp
$Comp
L Device:R_Pack04 RN1
U 1 1 5EBC4E2A
P 1250 1050
F 0 "RN1" V 833 1050 50  0000 C CNN
F 1 "R_Pack04" V 924 1050 50  0000 C CNN
F 2 "Resistor_SMD:R_Array_Convex_4x0402" V 1525 1050 50  0001 C CNN
F 3 "~" H 1250 1050 50  0001 C CNN
	1    1250 1050
	0    1    1    0   
$EndComp
Wire Wire Line
	2150 2400 2250 2400
Connection ~ 2250 2400
Wire Wire Line
	2250 2400 2450 2400
$Comp
L Device:R R19
U 1 1 5ECB42F9
P 3550 2550
F 0 "R19" V 3757 2550 50  0000 C CNN
F 1 "100R" V 3666 2550 50  0000 C CNN
F 2 "Resistor_SMD:R_0603_1608Metric_Pad0.98x0.95mm_HandSolder" V 3480 2550 50  0001 C CNN
F 3 "~" H 3550 2550 50  0001 C CNN
	1    3550 2550
	0    -1   -1   0   
$EndComp
$Comp
L Device:R R20
U 1 1 5ECB4A34
P 3550 2650
F 0 "R20" V 3757 2650 50  0000 C CNN
F 1 "100R" V 3666 2650 50  0000 C CNN
F 2 "Resistor_SMD:R_0603_1608Metric_Pad0.98x0.95mm_HandSolder" V 3480 2650 50  0001 C CNN
F 3 "~" H 3550 2650 50  0001 C CNN
	1    3550 2650
	0    -1   -1   0   
$EndComp
$Comp
L dim:RJ45_LED J11
U 1 1 5FFC4710
P 9200 2450
F 0 "J11" H 9200 1883 50  0000 C CNN
F 1 "RJ45_LED" H 9200 1974 50  0000 C CNN
F 2 "Connector_RJ:RJ45_OST_PJ012-8P8CX_Vertical" V 9200 2475 50  0001 C CNN
F 3 "~" V 9200 2475 50  0001 C CNN
	1    9200 2450
	1    0    0    -1  
$EndComp
$Comp
L power:GND #PWR0105
U 1 1 5FFC5BB0
P 8800 2100
F 0 "#PWR0105" H 8800 1850 50  0001 C CNN
F 1 "GND" H 8805 1927 50  0000 C CNN
F 2 "" H 8800 2100 50  0001 C CNN
F 3 "" H 8800 2100 50  0001 C CNN
	1    8800 2100
	0    1    1    0   
$EndComp
$Comp
L power:GND #PWR0106
U 1 1 5FFC6259
P 8800 2800
F 0 "#PWR0106" H 8800 2550 50  0001 C CNN
F 1 "GND" H 8805 2627 50  0000 C CNN
F 2 "" H 8800 2800 50  0001 C CNN
F 3 "" H 8800 2800 50  0001 C CNN
	1    8800 2800
	0    1    1    0   
$EndComp
$Comp
L power:+12V #PWR0108
U 1 1 5FFC685D
P 8550 2200
F 0 "#PWR0108" H 8550 2050 50  0001 C CNN
F 1 "+12V" H 8565 2373 50  0000 C CNN
F 2 "" H 8550 2200 50  0001 C CNN
F 3 "" H 8550 2200 50  0001 C CNN
	1    8550 2200
	0    -1   -1   0   
$EndComp
$Comp
L power:+5V #PWR0129
U 1 1 5FFC6F3D
P 8550 2700
F 0 "#PWR0129" H 8550 2550 50  0001 C CNN
F 1 "+5V" H 8565 2873 50  0000 C CNN
F 2 "" H 8550 2700 50  0001 C CNN
F 3 "" H 8550 2700 50  0001 C CNN
	1    8550 2700
	0    -1   -1   0   
$EndComp
Wire Wire Line
	8600 3800 8800 3800
Wire Wire Line
	8550 2700 8800 2700
Wire Wire Line
	8550 2200 8800 2200
Wire Wire Line
	8800 3400 9000 3400
Wire Wire Line
	9000 3400 9000 2300
Wire Wire Line
	9000 2300 8800 2300
Wire Wire Line
	8800 3500 9050 3500
Wire Wire Line
	9050 3500 9050 2400
Wire Wire Line
	9050 2400 8800 2400
Connection ~ 8800 3500
Wire Wire Line
	8800 3600 9100 3600
Wire Wire Line
	9100 3600 9100 2500
Wire Wire Line
	9100 2500 8800 2500
Connection ~ 8800 3600
Wire Wire Line
	8800 3700 9150 3700
Wire Wire Line
	9150 3700 9150 2600
Wire Wire Line
	9150 2600 8800 2600
$Comp
L Connector:Conn_01x04_Female J8
U 1 1 60019158
P 8050 2500
F 0 "J8" H 7942 2075 50  0000 C CNN
F 1 "Conn_01x04_Female" H 7942 2166 50  0000 C CNN
F 2 "Connector_PinHeader_1.27mm:PinHeader_2x02_P1.27mm_Vertical_SMD" H 8050 2500 50  0001 C CNN
F 3 "~" H 8050 2500 50  0001 C CNN
	1    8050 2500
	-1   0    0    1   
$EndComp
Wire Wire Line
	8250 2600 8800 2600
Connection ~ 8800 2600
Wire Wire Line
	8800 2500 8250 2500
Connection ~ 8800 2500
Wire Wire Line
	8250 2400 8500 2400
Wire Wire Line
	8500 2400 8500 2300
Wire Wire Line
	8500 2300 8800 2300
Connection ~ 8800 2300
Wire Wire Line
	8800 2400 8550 2400
Wire Wire Line
	8550 2400 8550 2350
Wire Wire Line
	8550 2350 8450 2350
Wire Wire Line
	8450 2350 8450 2300
Wire Wire Line
	8450 2300 8250 2300
Connection ~ 8800 2400
$Comp
L Connector:Conn_01x08_Female J9
U 1 1 6004AABA
P 9050 600
F 0 "J9" H 8942 -25 50  0000 C CNN
F 1 "Conn_01x08_Female" H 8942 66  50  0000 C CNN
F 2 "dim:WAGO_250-208" H 9050 600 50  0001 C CNN
F 3 "~" H 9050 600 50  0001 C CNN
	1    9050 600 
	0    -1   -1   0   
$EndComp
$Comp
L Connector:Conn_01x08_Female J10
U 1 1 600843A0
P 9150 1100
F 0 "J10" H 9042 475 50  0000 C CNN
F 1 "Conn_01x08_Female" H 9042 566 50  0000 C CNN
F 2 "dim:WAGO_250-208" H 9150 1100 50  0001 C CNN
F 3 "~" H 9150 1100 50  0001 C CNN
	1    9150 1100
	0    1    1    0   
$EndComp
$Comp
L Connector:Conn_01x08_Female J12
U 1 1 60085398
P 10150 600
F 0 "J12" H 10042 -25 50  0000 C CNN
F 1 "Conn_01x08_Female" H 10042 66  50  0000 C CNN
F 2 "dim:WAGO_250-208" H 10150 600 50  0001 C CNN
F 3 "~" H 10150 600 50  0001 C CNN
	1    10150 600 
	0    -1   -1   0   
$EndComp
$Comp
L Connector:Conn_01x08_Female J13
U 1 1 60088BA1
P 10250 1100
F 0 "J13" H 10142 475 50  0000 C CNN
F 1 "Conn_01x08_Female" H 10142 566 50  0000 C CNN
F 2 "dim:WAGO_250-208" H 10250 1100 50  0001 C CNN
F 3 "~" H 10250 1100 50  0001 C CNN
	1    10250 1100
	0    1    1    0   
$EndComp
$Comp
L power:+48V #PWR0130
U 1 1 6008E9B1
P 10850 800
F 0 "#PWR0130" H 10850 650 50  0001 C CNN
F 1 "+48V" H 10865 973 50  0000 C CNN
F 2 "" H 10850 800 50  0001 C CNN
F 3 "" H 10850 800 50  0001 C CNN
	1    10850 800 
	1    0    0    -1  
$EndComp
$Comp
L Connector:Conn_01x02_Female J14
U 1 1 6008FECA
P 11050 800
F 0 "J14" H 11078 776 50  0000 L CNN
F 1 "Conn_01x02_Female" H 11078 685 50  0000 L CNN
F 2 "dim:WAGO_250-202" H 11050 800 50  0001 C CNN
F 3 "~" H 11050 800 50  0001 C CNN
	1    11050 800 
	1    0    0    -1  
$EndComp
$Comp
L power:GND #PWR0150
U 1 1 6009C0A7
P 10850 900
F 0 "#PWR0150" H 10850 650 50  0001 C CNN
F 1 "GND" H 10855 727 50  0000 C CNN
F 2 "" H 10850 900 50  0001 C CNN
F 3 "" H 10850 900 50  0001 C CNN
	1    10850 900 
	1    0    0    -1  
$EndComp
Wire Wire Line
	10850 900  10550 900 
Connection ~ 10850 900 
Connection ~ 8850 900 
Wire Wire Line
	8850 900  8750 900 
Connection ~ 8950 900 
Wire Wire Line
	8950 900  8850 900 
Connection ~ 9050 900 
Wire Wire Line
	9050 900  8950 900 
Connection ~ 9150 900 
Wire Wire Line
	9150 900  9050 900 
Connection ~ 9250 900 
Wire Wire Line
	9250 900  9150 900 
Connection ~ 9350 900 
Wire Wire Line
	9350 900  9250 900 
Connection ~ 9450 900 
Wire Wire Line
	9450 900  9350 900 
Connection ~ 9850 900 
Wire Wire Line
	9850 900  9450 900 
Connection ~ 9950 900 
Wire Wire Line
	9950 900  9850 900 
Connection ~ 10050 900 
Wire Wire Line
	10050 900  9950 900 
Connection ~ 10150 900 
Wire Wire Line
	10150 900  10050 900 
Connection ~ 10250 900 
Wire Wire Line
	10250 900  10150 900 
Connection ~ 10350 900 
Wire Wire Line
	10350 900  10250 900 
Connection ~ 10450 900 
Wire Wire Line
	10450 900  10350 900 
Connection ~ 10550 900 
Wire Wire Line
	10550 900  10450 900 
Wire Wire Line
	10850 800  10550 800 
Connection ~ 10850 800 
Connection ~ 8850 800 
Wire Wire Line
	8850 800  8750 800 
Connection ~ 8950 800 
Wire Wire Line
	8950 800  8850 800 
Connection ~ 9050 800 
Wire Wire Line
	9050 800  8950 800 
Connection ~ 9150 800 
Wire Wire Line
	9150 800  9050 800 
Connection ~ 9250 800 
Wire Wire Line
	9250 800  9150 800 
Connection ~ 9350 800 
Wire Wire Line
	9350 800  9250 800 
Connection ~ 9450 800 
Wire Wire Line
	9450 800  9350 800 
Connection ~ 9850 800 
Wire Wire Line
	9850 800  9450 800 
Connection ~ 9950 800 
Wire Wire Line
	9950 800  9850 800 
Connection ~ 10050 800 
Wire Wire Line
	10050 800  9950 800 
Connection ~ 10150 800 
Wire Wire Line
	10150 800  10050 800 
Connection ~ 10250 800 
Wire Wire Line
	10250 800  10150 800 
Connection ~ 10350 800 
Wire Wire Line
	10350 800  10250 800 
Connection ~ 10450 800 
Wire Wire Line
	10450 800  10350 800 
Connection ~ 10550 800 
Wire Wire Line
	10550 800  10450 800 
$EndSCHEMATC
