EESchema Schematic File Version 4
EELAYER 30 0
EELAYER END
$Descr A4 11693 8268
encoding utf-8
Sheet 1 1
Title ""
Date ""
Rev ""
Comp ""
Comment1 ""
Comment2 ""
Comment3 ""
Comment4 ""
$EndDescr
$Comp
L dim:LM3402 U?
U 1 1 5E246FEA
P 6300 2350
F 0 "U?" H 6325 2831 50  0000 C CNN
F 1 "LM3402" H 6325 2740 50  0000 C CNN
F 2 "Package_SO:MSOP-8_3x3mm_P0.65mm" H 6300 2600 50  0001 C CNN
F 3 "" H 6300 2600 50  0001 C CNN
	1    6300 2350
	1    0    0    -1  
$EndComp
$Comp
L power:+12V #PWR?
U 1 1 5E253B27
P 5800 2600
F 0 "#PWR?" H 5800 2450 50  0001 C CNN
F 1 "+12V" H 5815 2773 50  0000 C CNN
F 2 "" H 5800 2600 50  0001 C CNN
F 3 "" H 5800 2600 50  0001 C CNN
	1    5800 2600
	-1   0    0    1   
$EndComp
$Comp
L power:GND #PWR?
U 1 1 5E2558BD
P 6300 2700
F 0 "#PWR?" H 6300 2450 50  0001 C CNN
F 1 "GND" H 6305 2527 50  0000 C CNN
F 2 "" H 6300 2700 50  0001 C CNN
F 3 "" H 6300 2700 50  0001 C CNN
	1    6300 2700
	1    0    0    -1  
$EndComp
$Comp
L power:+48V #PWR?
U 1 1 5E255F86
P 5600 1300
F 0 "#PWR?" H 5600 1150 50  0001 C CNN
F 1 "+48V" H 5615 1473 50  0000 C CNN
F 2 "" H 5600 1300 50  0001 C CNN
F 3 "" H 5600 1300 50  0001 C CNN
	1    5600 1300
	1    0    0    -1  
$EndComp
$Comp
L power:+12V #PWR?
U 1 1 5E256560
P 5850 1300
F 0 "#PWR?" H 5850 1150 50  0001 C CNN
F 1 "+12V" H 5865 1473 50  0000 C CNN
F 2 "" H 5850 1300 50  0001 C CNN
F 3 "" H 5850 1300 50  0001 C CNN
	1    5850 1300
	1    0    0    -1  
$EndComp
$Comp
L power:GND #PWR?
U 1 1 5E256878
P 6100 1300
F 0 "#PWR?" H 6100 1050 50  0001 C CNN
F 1 "GND" H 6105 1127 50  0000 C CNN
F 2 "" H 6100 1300 50  0001 C CNN
F 3 "" H 6100 1300 50  0001 C CNN
	1    6100 1300
	-1   0    0    1   
$EndComp
$Comp
L Device:C C?
U 1 1 5E256F36
P 6550 2050
F 0 "C?" V 6298 2050 50  0000 C CNN
F 1 "C" V 6389 2050 50  0000 C CNN
F 2 "" H 6588 1900 50  0001 C CNN
F 3 "~" H 6550 2050 50  0001 C CNN
	1    6550 2050
	0    1    1    0   
$EndComp
$Comp
L power:GND #PWR?
U 1 1 5E25802B
P 6700 2050
F 0 "#PWR?" H 6700 1800 50  0001 C CNN
F 1 "GND" V 6705 1922 50  0000 R CNN
F 2 "" H 6700 2050 50  0001 C CNN
F 3 "" H 6700 2050 50  0001 C CNN
	1    6700 2050
	0    -1   -1   0   
$EndComp
Wire Wire Line
	6300 2050 6400 2050
$Comp
L Device:LED D?
U 1 1 5E2595A9
P 8400 2450
F 0 "D?" V 8439 2333 50  0000 R CNN
F 1 "LED" V 8348 2333 50  0000 R CNN
F 2 "" H 8400 2450 50  0001 C CNN
F 3 "~" H 8400 2450 50  0001 C CNN
	1    8400 2450
	0    -1   -1   0   
$EndComp
$Comp
L Device:R R?
U 1 1 5E25A1A6
P 5650 2400
F 0 "R?" V 5443 2400 50  0000 C CNN
F 1 "R" V 5534 2400 50  0000 C CNN
F 2 "" V 5580 2400 50  0001 C CNN
F 3 "~" H 5650 2400 50  0001 C CNN
	1    5650 2400
	0    1    1    0   
$EndComp
Wire Wire Line
	5800 2600 5800 2500
Wire Wire Line
	5800 2500 5900 2500
Wire Wire Line
	5900 2400 5800 2400
Wire Wire Line
	5800 2500 5500 2500
Wire Wire Line
	5500 2500 5500 2400
Connection ~ 5800 2500
$Comp
L Device:L L?
U 1 1 5E261EC5
P 7600 2300
F 0 "L?" V 7790 2300 50  0000 C CNN
F 1 "L" V 7699 2300 50  0000 C CNN
F 2 "" H 7600 2300 50  0001 C CNN
F 3 "~" H 7600 2300 50  0001 C CNN
	1    7600 2300
	0    -1   -1   0   
$EndComp
$Comp
L Device:D_Schottky D?
U 1 1 5E2662DD
P 7450 2450
F 0 "D?" V 7404 2529 50  0000 L CNN
F 1 "D_Schottky" V 7495 2529 50  0000 L CNN
F 2 "" H 7450 2450 50  0001 C CNN
F 3 "~" H 7450 2450 50  0001 C CNN
	1    7450 2450
	0    1    1    0   
$EndComp
$Comp
L Device:C C?
U 1 1 5E2682DE
P 7200 2800
F 0 "C?" V 6948 2800 50  0000 C CNN
F 1 "C" V 7039 2800 50  0000 C CNN
F 2 "" H 7238 2650 50  0001 C CNN
F 3 "~" H 7200 2800 50  0001 C CNN
	1    7200 2800
	0    1    1    0   
$EndComp
Wire Wire Line
	6750 2300 7350 2300
Connection ~ 7450 2300
Wire Wire Line
	6750 2400 7050 2400
Wire Wire Line
	7050 2400 7050 2800
Wire Wire Line
	7350 2800 7350 2300
Connection ~ 7350 2300
Wire Wire Line
	7350 2300 7450 2300
$Comp
L power:GND #PWR?
U 1 1 5E26E453
P 7450 2600
F 0 "#PWR?" H 7450 2350 50  0001 C CNN
F 1 "GND" H 7455 2427 50  0000 C CNN
F 2 "" H 7450 2600 50  0001 C CNN
F 3 "" H 7450 2600 50  0001 C CNN
	1    7450 2600
	1    0    0    -1  
$EndComp
$Comp
L Device:C C?
U 1 1 5E2713C3
P 8100 2450
F 0 "C?" H 7985 2404 50  0000 R CNN
F 1 "C" H 7985 2495 50  0000 R CNN
F 2 "" H 8138 2300 50  0001 C CNN
F 3 "~" H 8100 2450 50  0001 C CNN
	1    8100 2450
	-1   0    0    1   
$EndComp
$Comp
L Device:R R?
U 1 1 5E271AD6
P 8400 2950
F 0 "R?" H 8330 2904 50  0000 R CNN
F 1 "R" H 8330 2995 50  0000 R CNN
F 2 "" V 8330 2950 50  0001 C CNN
F 3 "~" H 8400 2950 50  0001 C CNN
	1    8400 2950
	-1   0    0    1   
$EndComp
Wire Wire Line
	7750 2300 8100 2300
Wire Wire Line
	8100 2300 8400 2300
Connection ~ 8100 2300
Wire Wire Line
	8400 2600 8100 2600
Connection ~ 8400 2600
$Comp
L power:GND #PWR?
U 1 1 5E272F43
P 8400 3100
F 0 "#PWR?" H 8400 2850 50  0001 C CNN
F 1 "GND" H 8405 2927 50  0000 C CNN
F 2 "" H 8400 3100 50  0001 C CNN
F 3 "" H 8400 3100 50  0001 C CNN
	1    8400 3100
	1    0    0    -1  
$EndComp
Wire Wire Line
	8400 2750 7600 2750
Wire Wire Line
	7600 2750 7600 3000
Wire Wire Line
	7600 3000 6750 3000
Wire Wire Line
	6750 3000 6750 2500
Wire Wire Line
	8400 2600 8400 2750
Connection ~ 8400 2750
Wire Wire Line
	8400 2750 8400 2800
$Comp
L Connector:Conn_01x05_Male J?
U 1 1 5E276436
P 4650 1450
F 0 "J?" H 4758 1831 50  0000 C CNN
F 1 "Conn_01x05_Male" H 4758 1740 50  0000 C CNN
F 2 "" H 4650 1450 50  0001 C CNN
F 3 "~" H 4650 1450 50  0001 C CNN
	1    4650 1450
	1    0    0    -1  
$EndComp
Wire Wire Line
	4850 1550 5900 1550
Wire Wire Line
	5900 1550 5900 2300
$EndSCHEMATC
